{
  "project_info": {
    "project_number": "336592299500",
    "firebase_url": "https://shopviewmodel.firebaseio.com",
    "project_id": "shopviewmodel",
    "storage_bucket": "shopviewmodel.appspot.com"
  },
  "client": [
    {
      "client_info": {
        "mobilesdk_app_id": "1:336592299500:android:8dbcc1196ced533d",
        "android_client_info": {
          "package_name": "com.west.shopviewmodel"
        }
      },
      "oauth_client": [
        {
          "client_id": "336592299500-79jb3negrffi753gug84umjff5ibr215.apps.googleusercontent.com",
          "client_type": 1,
          "android_info": {
            "package_name": "com.west.shopviewmodel",
            "certificate_hash": "464b37170c134a4092edd9138656b20bb820706d"
          }
        },
        {
          "client_id": "336592299500-hsbno8jd5r9katm66nuff007suoodkll.apps.googleusercontent.com",
          "client_type": 3
        }
      ],
      "api_key": [
        {
          "current_key": "AIzaSyCsEn7t-76g_rqK81TiWFa8rfxYDtsRCxQ"
        }
      ],
      "services": {
        "appinvite_service": {
          "other_platform_oauth_client": [
            {
              "client_id": "336592299500-hsbno8jd5r9katm66nuff007suoodkll.apps.googleusercontent.com",
              "client_type": 3
            }
          ]
        }
      }
    }
  ],
  "configuration_version": "1"
}